﻿{
  "ProjectName": "Rten",
  "DownloadURL": "https://docs.google.com/uc?export=download&id=1F06qo_6OBTqa0w6EaCySjHD60T1BdsMQ",
  "DownloadTally": 1,
  "HoursPerDownload": 2,
  "ShouldAutoDownload": false,
  "ShouldAutoDelete": true
}